mixture models
…
Here is an example of a dataset generated out of such model.

set.seed(123)
N   <- 500
mus <- c(-0.5, 1.5)
u   <- sample(1:2, N, replace = TRUE)  ## label
x   <- rnorm(N, mean = mus[u], sd = 0.75)
(df  <- tibble(u, x))

# A tibble: 500 x 2
       u      x
   <int>  <dbl>
 1     1 -0.782
 2     1 -0.921
 3     1 -0.758
 4     2  1.57 
 5     1  0.699
 6     2  1.43 
 7     2  2.31 
 8     2  1.97 
 9     1 -0.585
10     1 -1.65 
# … with 490 more rows
…
